[
{
  "model": "tracker.project",
  "pk": 1,
  "fields": {
    "start_date": "2022-02-07",
    "end_date": "2022-02-16",
    "title": "Хобби",
    "description": "Ваше хобби",
    "is_deleted": false,
    "user": [
      1
    ]
  }
},
{
  "model": "tracker.project",
  "pk": 2,
  "fields": {
    "start_date": "2022-02-17",
    "end_date": "2022-02-24",
    "title": "Закупить продукты",
    "description": "",
    "is_deleted": false,
    "user": []
  }
},
{
  "model": "tracker.project",
  "pk": 4,
  "fields": {
    "start_date": "2022-02-10",
    "end_date": "2022-02-15",
    "title": "По работе",
    "description": "по работе",
    "is_deleted": false,
    "user": []
  }
},
{
  "model": "tracker.project",
  "pk": 12,
  "fields": {
    "start_date": "2022-02-24",
    "end_date": "2022-02-10",
    "title": "Какой-то проект",
    "description": "Какой-то проект",
    "is_deleted": false,
    "user": [
      7,
      8,
      9
    ]
  }
},
{
  "model": "tracker.issue",
  "pk": 1,
  "fields": {
    "created_at": "2022-01-20T02:50:40.036Z",
    "updated_at": "2022-01-10T16:01:49.564Z",
    "is_deleted": false,
    "summary": "Купить хлеб",
    "description": "Сходить в магазин купить хлеб",
    "status": 3,
    "project": 2,
    "style": [
      1
    ]
  }
},
{
  "model": "tracker.issue",
  "pk": 2,
  "fields": {
    "created_at": "2022-01-20T02:52:55.909Z",
    "updated_at": "2022-01-20T02:52:55.909Z",
    "is_deleted": false,
    "summary": "Поиграть в компьютер",
    "description": "Включить компьютер, поиграть в игры",
    "status": 2,
    "project": 1,
    "style": [
      3
    ]
  }
},
{
  "model": "tracker.issue",
  "pk": 3,
  "fields": {
    "created_at": "2022-01-20T02:53:47.340Z",
    "updated_at": "2022-01-11T16:01:41.665Z",
    "is_deleted": false,
    "summary": "Выйти на пробежку",
    "description": "Надеть спортивную одежду, выйти на улицу, побегать",
    "status": 3,
    "project": 1,
    "style": [
      1,
      2
    ]
  }
},
{
  "model": "tracker.issue",
  "pk": 5,
  "fields": {
    "created_at": "2022-01-20T02:55:10.070Z",
    "updated_at": "2022-01-12T16:02:02.247Z",
    "is_deleted": false,
    "summary": "Накормить кота",
    "description": "Купить корм коту, накормить его",
    "status": 3,
    "project": 2,
    "style": [
      3
    ]
  }
},
{
  "model": "tracker.issue",
  "pk": 14,
  "fields": {
    "created_at": "2022-02-07T13:50:05.565Z",
    "updated_at": "2022-02-24T19:56:50.345Z",
    "is_deleted": false,
    "summary": "Съездить на рыбалку",
    "description": "Съездить на рыбалку",
    "status": 2,
    "project": 1,
    "style": [
      1,
      3
    ]
  }
},
{
  "model": "tracker.issue",
  "pk": 16,
  "fields": {
    "created_at": "2022-02-07T14:23:18.419Z",
    "updated_at": "2022-02-09T18:02:34.199Z",
    "is_deleted": false,
    "summary": "Купить яблоки",
    "description": "Пойти в магазин, купить яблоки",
    "status": 2,
    "project": 2,
    "style": [
      1
    ]
  }
},
{
  "model": "tracker.issue",
  "pk": 24,
  "fields": {
    "created_at": "2022-02-07T17:26:55.469Z",
    "updated_at": "2022-02-07T17:26:55.488Z",
    "is_deleted": false,
    "summary": "Написать программу",
    "description": "Написать программу",
    "status": 2,
    "project": 4,
    "style": [
      2
    ]
  }
},
{
  "model": "tracker.issue",
  "pk": 25,
  "fields": {
    "created_at": "2022-02-07T17:27:14.562Z",
    "updated_at": "2022-02-09T18:01:08.705Z",
    "is_deleted": false,
    "summary": "Устранить ошибки",
    "description": "Включить компьютер, запустить программу, устранить ошибки",
    "status": 2,
    "project": 4,
    "style": [
      1
    ]
  }
},
{
  "model": "tracker.issue",
  "pk": 35,
  "fields": {
    "created_at": "2022-02-09T19:13:58.974Z",
    "updated_at": "2022-02-09T19:13:58.974Z",
    "is_deleted": false,
    "summary": "Присутствовать на совещании",
    "description": "Присутствовать на совещании",
    "status": 1,
    "project": 4,
    "style": [
      3
    ]
  }
},
{
  "model": "tracker.issue",
  "pk": 55,
  "fields": {
    "created_at": "2022-02-24T20:00:26.079Z",
    "updated_at": "2022-02-24T20:00:47.559Z",
    "is_deleted": false,
    "summary": "Выйти на пробежку",
    "description": "Выйти на пробежку",
    "status": 1,
    "project": 1,
    "style": [
      2,
      3
    ]
  }
},
{
  "model": "tracker.issue",
  "pk": 56,
  "fields": {
    "created_at": "2022-02-24T20:30:38.212Z",
    "updated_at": "2022-02-24T20:32:13.836Z",
    "is_deleted": false,
    "summary": "Купить яблоки",
    "description": "",
    "status": 1,
    "project": 12,
    "style": [
      2,
      3
    ]
  }
},
{
  "model": "tracker.issue",
  "pk": 57,
  "fields": {
    "created_at": "2022-02-24T20:34:36.916Z",
    "updated_at": "2022-02-24T20:34:48.234Z",
    "is_deleted": false,
    "summary": "Написать программу",
    "description": "",
    "status": 3,
    "project": 12,
    "style": [
      2
    ]
  }
},
{
  "model": "tracker.issue",
  "pk": 59,
  "fields": {
    "created_at": "2022-02-25T07:51:44.104Z",
    "updated_at": "2022-02-25T07:51:44.104Z",
    "is_deleted": false,
    "summary": "Выйти на пробежку",
    "description": "",
    "status": 1,
    "project": 12,
    "style": [
      1
    ]
  }
},
{
  "model": "tracker.issue",
  "pk": 61,
  "fields": {
    "created_at": "2022-02-25T07:53:10.595Z",
    "updated_at": "2022-02-25T07:53:10.595Z",
    "is_deleted": false,
    "summary": "Заправить машину",
    "description": "",
    "status": 1,
    "project": 12,
    "style": [
      1
    ]
  }
},
{
  "model": "tracker.issue",
  "pk": 62,
  "fields": {
    "created_at": "2022-02-25T07:54:06.819Z",
    "updated_at": "2022-02-25T07:54:06.819Z",
    "is_deleted": false,
    "summary": "Заправить машину",
    "description": "",
    "status": 1,
    "project": 12,
    "style": [
      1
    ]
  }
},
{
  "model": "tracker.issue",
  "pk": 64,
  "fields": {
    "created_at": "2022-02-25T07:56:50.616Z",
    "updated_at": "2022-02-25T07:56:50.617Z",
    "is_deleted": false,
    "summary": "Выйти на пробежку",
    "description": "",
    "status": 3,
    "project": 12,
    "style": [
      3
    ]
  }
},
{
  "model": "tracker.status",
  "pk": 1,
  "fields": {
    "status": "Новый"
  }
},
{
  "model": "tracker.status",
  "pk": 2,
  "fields": {
    "status": "В процессе"
  }
},
{
  "model": "tracker.status",
  "pk": 3,
  "fields": {
    "status": "Выполнено"
  }
},
{
  "model": "tracker.style",
  "pk": 1,
  "fields": {
    "style": "Задача"
  }
},
{
  "model": "tracker.style",
  "pk": 2,
  "fields": {
    "style": "Ошибка"
  }
},
{
  "model": "tracker.style",
  "pk": 3,
  "fields": {
    "style": "Улучшение"
  }
}
]
